module gitlab.com/mauromamani20014/gin-crud

go 1.17

require (
	github.com/dgrijalva/jwt-go v3.2.0+incompatible
	github.com/gin-gonic/gin v1.7.4
	github.com/go-playground/locales v0.14.0
	github.com/go-playground/universal-translator v0.18.0
	github.com/go-playground/validator/v10 v10.9.0
	github.com/pkg/errors v0.9.1
	github.com/rs/cors v1.8.0
	golang.org/x/crypto v0.0.0-20210921155107-089bfa567519
	gorm.io/driver/sqlite v1.1.5
	gorm.io/gorm v1.21.15
)

require (
	github.com/fsnotify/fsnotify v1.5.1 // indirect
	github.com/gin-contrib/sse v0.1.0 // indirect
	github.com/golang/protobuf v1.5.2 // indirect
	github.com/hashicorp/hcl v1.0.0 // indirect
	github.com/jinzhu/inflection v1.0.0 // indirect
	github.com/jinzhu/now v1.1.2 // indirect
	github.com/json-iterator/go v1.1.12 // indirect
	github.com/leodido/go-urn v1.2.1 // indirect
	github.com/magiconair/properties v1.8.5 // indirect
	github.com/mattn/go-isatty v0.0.14 // indirect
	github.com/mattn/go-sqlite3 v1.14.8 // indirect
	github.com/mitchellh/mapstructure v1.4.2 // indirect
	github.com/modern-go/concurrent v0.0.0-20180306012644-bacd9c7ef1dd // indirect
	github.com/modern-go/reflect2 v1.0.2 // indirect
	github.com/pelletier/go-toml v1.9.4 // indirect
	github.com/spf13/afero v1.6.0 // indirect
	github.com/spf13/cast v1.4.1 // indirect
	github.com/spf13/jwalterweatherman v1.1.0 // indirect
	github.com/spf13/pflag v1.0.5 // indirect
	github.com/spf13/viper v1.9.0 // indirect
	github.com/subosito/gotenv v1.2.0 // indirect
	github.com/ugorji/go/codec v1.2.6 // indirect
	golang.org/x/sys v0.0.0-20210823070655-63515b42dcdf // indirect
	golang.org/x/text v0.3.6 // indirect
	google.golang.org/protobuf v1.27.1 // indirect
	gopkg.in/ini.v1 v1.63.2 // indirect
	gopkg.in/yaml.v2 v2.4.0 // indirect
)
